…
========================================================

Übrigens: Die read-Funktionen funktionieren auch mit Dateien aus dem Internet


```r
readr::read_tsv("http://www.sthda.com/upload/boxplot_format.txt")
```

```
# A tibble: 72 x 3
   Nom   variable Group
   <chr>    <int> <chr>
 1 IND1        10 A    
 2 IND2         7 A    
 3 IND3        20 A    
 4 IND4        14 A    
 5 IND5        14 A    
 6 IND6        12 A    
 7 IND7        10 A    
 8 IND8        23 A    
 9 IND9        17 A    
10 IND10       20 A    
# ... with 62 more rows
```
…
